<?xml version="1.0" encoding="UTF-8" standalone="no"?>
<svg
   xmlns:dc="http://purl.org/dc/elements/1.1/"
   xmlns:cc="http://creativecommons.org/ns#"
   xmlns:rdf="http://www.w3.org/1999/02/22-rdf-syntax-ns#"
   xmlns:svg="http://www.w3.org/2000/svg"
   xmlns="http://www.w3.org/2000/svg"
   xmlns:xlink="http://www.w3.org/1999/xlink"
   xmlns:sodipodi="http://sodipodi.sourceforge.net/DTD/sodipodi-0.dtd"
   xmlns:inkscape="http://www.inkscape.org/namespaces/inkscape"
   version="1.0"
   width="256"
   height="256"
   id="svg249"
   inkscape:version="0.48.4 r9939"
   sodipodi:docname="test.svg">
  <metadata
     id="metadata96">
    <rdf:RDF>
      <cc:Work
         rdf:about="">
        <dc:format>image/svg+xml</dc:format>
        <dc:type
           rdf:resource="http://purl.org/dc/dcmitype/StillImage" />
        <dc:title></dc:title>
      </cc:Work>
    </rdf:RDF>
  </metadata>
  <sodipodi:namedview
     pagecolor="#ffffff"
     bordercolor="#666666"
     borderopacity="1"
     objecttolerance="10"
     gridtolerance="10"
     guidetolerance="10"
     inkscape:pageopacity="0"
     inkscape:pageshadow="2"
     inkscape:window-width="1920"
     inkscape:window-height="1018"
     id="namedview94"
     showgrid="false"
     inkscape:zoom="1.4142136"
     inkscape:cx="144.8586"
     inkscape:cy="18.361113"
     inkscape:window-x="-8"
     inkscape:window-y="-8"
     inkscape:window-maximized="1"
     inkscape:current-layer="svg249"
     fit-margin-top="0"
     fit-margin-left="0"
     fit-margin-right="0"
     fit-margin-bottom="0">
    <inkscape:grid
       type="xygrid"
       id="grid3581"
       empspacing="5"
       visible="true"
       enabled="true"
       snapvisiblegridlinesonly="true"
       spacingx="1px"
       spacingy="1px"
       originx="-5.0212819px"
       originy="-2.9986209px" />
  </sodipodi:namedview>
  <defs
     id="defs3">
    <linearGradient
       id="linearGradient4542">
      <stop
         id="stop4544"
         style="stop-color:#000000;stop-opacity:1"
         offset="0" />
      <stop
         id="stop4546"
         style="stop-color:#000000;stop-opacity:0"
         offset="1" />
    </linearGradient>
    <linearGradient
       id="linearGradient15662">
      <stop
         id="stop15664"
         style="stop-color:#ffffff;stop-opacity:1"
         offset="0" />
      <stop
         id="stop15666"
         style="stop-color:#f8f8f8;stop-opacity:1"
         offset="1" />
    </linearGradient>
    <radialGradient
       cx="20.892099"
       cy="64.567902"
       r="5.257"
       fx="20.892099"
       fy="64.567902"
       id="aigrd3"
       gradientUnits="userSpaceOnUse">
      <stop
         id="stop15573"
         style="stop-color:#f0f0f0;stop-opacity:1"
         offset="0" />
      <stop
         id="stop15575"
         style="stop-color:#9a9a9a;stop-opacity:1"
         offset="1" />
    </radialGradient>
    <radialGradient
       cx="20.892099"
       cy="114.5684"
       r="5.256"
       fx="20.892099"
       fy="114.5684"
       id="aigrd2"
       gradientUnits="userSpaceOnUse">
      <stop
         id="stop15566"
         style="stop-color:#f0f0f0;stop-opacity:1"
         offset="0" />
      <stop
         id="stop15568"
         style="stop-color:#9a9a9a;stop-opacity:1"
         offset="1" />
    </radialGradient>
    <linearGradient
       id="linearGradient269">
      <stop
         id="stop270"
         style="stop-color:#a3a3a3;stop-opacity:1"
         offset="0" />
      <stop
         id="stop271"
         style="stop-color:#4c4c4c;stop-opacity:1"
         offset="1" />
    </linearGradient>
    <linearGradient
       id="linearGradient259">
      <stop
         id="stop260"
         style="stop-color:#fafafa;stop-opacity:1"
         offset="0" />
      <stop
         id="stop261"
         style="stop-color:#bbbbbb;stop-opacity:1"
         offset="1" />
    </linearGradient>
    <radialGradient
       cx="8.824419"
       cy="3.7561285"
       r="37.751713"
       fx="8.824419"
       fy="3.7561285"
       id="radialGradient15656"
       xlink:href="#linearGradient269"
       gradientUnits="userSpaceOnUse"
       gradientTransform="matrix(0.968273,0,0,1.032767,3.353553,0.646447)" />
    <radialGradient
       cx="33.966679"
       cy="35.736916"
       r="86.70845"
       fx="33.966679"
       fy="35.736916"
       id="radialGradient15658"
       xlink:href="#linearGradient259"
       gradientUnits="userSpaceOnUse"
       gradientTransform="scale(0.960493,1.041132)" />
    <radialGradient
       cx="8.1435566"
       cy="7.2678967"
       r="38.158695"
       fx="8.1435566"
       fy="7.2678967"
       id="radialGradient15668"
       xlink:href="#linearGradient15662"
       gradientUnits="userSpaceOnUse"
       gradientTransform="matrix(0.968273,0,0,1.032767,3.353553,0.646447)" />
    <radialGradient
       cx="20.892099"
       cy="114.5684"
       r="5.256"
       fx="20.892099"
       fy="114.5684"
       id="radialGradient2283"
       xlink:href="#aigrd2"
       gradientUnits="userSpaceOnUse"
       gradientTransform="matrix(0.229703,0,0,0.229703,4.613529,3.979808)" />
    <radialGradient
       cx="20.892099"
       cy="64.567902"
       r="5.257"
       fx="20.892099"
       fy="64.567902"
       id="radialGradient2285"
       xlink:href="#aigrd3"
       gradientUnits="userSpaceOnUse"
       gradientTransform="matrix(0.229703,0,0,0.229703,4.613529,3.979808)" />
    <radialGradient
       cx="24.306795"
       cy="42.07798"
       r="15.821514"
       fx="24.306795"
       fy="42.07798"
       id="radialGradient4548"
       xlink:href="#linearGradient4542"
       gradientUnits="userSpaceOnUse"
       gradientTransform="matrix(1,0,0,0.284916,0,30.08928)" />
    <linearGradient
       id="linearGradient2865">
      <stop
         id="stop2867"
         style="stop-color:#000000;stop-opacity:1"
         offset="0" />
      <stop
         id="stop2869"
         style="stop-color:#000000;stop-opacity:0"
         offset="1" />
    </linearGradient>
    <linearGradient
       id="linearGradient2966">
      <stop
         id="stop2968"
         style="stop-color:#ffd1d1;stop-opacity:1"
         offset="0" />
      <stop
         id="stop3006"
         style="stop-color:#ff1d1d;stop-opacity:1"
         offset="0.5" />
      <stop
         id="stop2970"
         style="stop-color:#6f0000;stop-opacity:1"
         offset="1" />
    </linearGradient>
    <linearGradient
       id="linearGradient2974">
      <stop
         id="stop2976"
         style="stop-color:#c1c1c1;stop-opacity:1"
         offset="0" />
      <stop
         id="stop2978"
         style="stop-color:#acacac;stop-opacity:1"
         offset="1" />
    </linearGradient>
    <linearGradient
       id="linearGradient2984">
      <stop
         id="stop2986"
         style="stop-color:#e7e2b8;stop-opacity:1"
         offset="0" />
      <stop
         id="stop2988"
         style="stop-color:#e7e2b8;stop-opacity:0"
         offset="1" />
    </linearGradient>
    <linearGradient
       id="linearGradient2994">
      <stop
         id="stop2996"
         style="stop-color:#000000;stop-opacity:1"
         offset="0" />
      <stop
         id="stop2998"
         style="stop-color:#c9c9c9;stop-opacity:1"
         offset="1" />
    </linearGradient>
    <radialGradient
       cx="20.525417"
       cy="40.437481"
       r="19.5625"
       fx="20.525417"
       fy="40.437481"
       id="radialGradient2552"
       xlink:href="#linearGradient2865"
       gradientUnits="userSpaceOnUse"
       gradientTransform="matrix(1,0,0,0.348243,0,26.35543)" />
    <linearGradient
       x1="48.90625"
       y1="17.376184"
       x2="50.988335"
       y2="22.250591"
       id="linearGradient2554"
       xlink:href="#linearGradient2966"
       gradientUnits="userSpaceOnUse"
       gradientTransform="translate(-5.669292,0)" />
    <linearGradient
       x1="46"
       y1="19.8125"
       x2="47.6875"
       y2="22.625"
       id="linearGradient2556"
       xlink:href="#linearGradient2974"
       gradientUnits="userSpaceOnUse"
       gradientTransform="translate(-5.669292,0)" />
    <radialGradient
       cx="29.053354"
       cy="27.640751"
       r="3.2408545"
       fx="29.053354"
       fy="27.640751"
       id="radialGradient2558"
       xlink:href="#linearGradient2984"
       gradientUnits="userSpaceOnUse"
       gradientTransform="matrix(2.923565,0,0,2.029717,-61.55532,-27.88417)" />
    <linearGradient
       x1="25.71875"
       y1="31.046875"
       x2="25.514589"
       y2="30.703125"
       id="linearGradient2560"
       xlink:href="#linearGradient2994"
       gradientUnits="userSpaceOnUse"
       gradientTransform="translate(-5.825542,0.125)" />
    <linearGradient
       y2="37.964115"
       x2="29.940228"
       y1="1.3897572"
       x1="6.5263553"
       gradientUnits="userSpaceOnUse"
       id="linearGradient4809"
       xlink:href="#linearGradient4650"
       inkscape:collect="always" />
    <linearGradient
       y2="12.372997"
       x2="14.409305"
       y1="3.3621745"
       x1="8.0876923"
       gradientUnits="userSpaceOnUse"
       id="linearGradient4807"
       xlink:href="#linearGradient2111"
       inkscape:collect="always" />
    <linearGradient
       y2="12.372997"
       x2="24.308804"
       y1="3.3621745"
       x1="17.987192"
       gradientUnits="userSpaceOnUse"
       id="linearGradient4805"
       xlink:href="#linearGradient2111"
       inkscape:collect="always" />
    <linearGradient
       y2="7.423245"
       x2="19.359053"
       y1="-1.5875777"
       x1="13.037439"
       gradientUnits="userSpaceOnUse"
       id="linearGradient4803"
       xlink:href="#linearGradient2111"
       inkscape:collect="always" />
    <linearGradient
       y2="17.322744"
       x2="19.359053"
       y1="8.3119221"
       x1="13.037439"
       gradientUnits="userSpaceOnUse"
       id="linearGradient4801"
       xlink:href="#linearGradient2111"
       inkscape:collect="always" />
    <linearGradient
       y2="25.884274"
       x2="22.218424"
       y1="7.7893324"
       x1="6.342216"
       gradientUnits="userSpaceOnUse"
       id="linearGradient4799"
       xlink:href="#linearGradient42174"
       inkscape:collect="always" />
    <radialGradient
       r="29.292715"
       fy="10.045444"
       fx="11.901996"
       cy="10.045444"
       cx="11.901996"
       gradientUnits="userSpaceOnUse"
       id="radialGradient4797"
       xlink:href="#linearGradient2145"
       inkscape:collect="always" />
    <linearGradient
       y2="52.090679"
       x2="9.8855038"
       y1="37.197018"
       x1="8.9156475"
       gradientTransform="matrix(1.909643,0,0,0.592783,-10.06194,-1.765898)"
       gradientUnits="userSpaceOnUse"
       id="linearGradient4795"
       xlink:href="#linearGradient2152"
       inkscape:collect="always" />
    <radialGradient
       r="11.5"
       fy="31"
       fx="23.75"
       cy="31"
       cx="23.75"
       gradientUnits="userSpaceOnUse"
       id="radialGradient4793"
       xlink:href="#linearGradient4642"
       inkscape:collect="always" />
    <radialGradient
       r="38.158695"
       fy="7.2678967"
       fx="8.1435566"
       cy="7.2678967"
       cx="8.1435566"
       gradientTransform="matrix(0.968273,0,0,1.032767,3.353553,0.646447)"
       gradientUnits="userSpaceOnUse"
       id="radialGradient15668-4"
       xlink:href="#linearGradient15662-9"
       inkscape:collect="always" />
    <radialGradient
       r="86.70845"
       fy="35.736916"
       fx="33.966679"
       cy="35.736916"
       cx="33.966679"
       gradientTransform="scale(0.960493,1.041132)"
       gradientUnits="userSpaceOnUse"
       id="radialGradient15658-8"
       xlink:href="#linearGradient259-1"
       inkscape:collect="always" />
    <radialGradient
       r="37.751713"
       fy="3.7561285"
       fx="8.824419"
       cy="3.7561285"
       cx="8.824419"
       gradientTransform="matrix(0.968273,0,0,1.032767,3.353553,0.646447)"
       gradientUnits="userSpaceOnUse"
       id="radialGradient15656-9"
       xlink:href="#linearGradient269-8"
       inkscape:collect="always" />
    <linearGradient
       id="linearGradient259-1">
      <stop
         style="stop-color:#fafafa;stop-opacity:1.0000000;"
         offset="0.0000000"
         id="stop260-1" />
      <stop
         style="stop-color:#bbbbbb;stop-opacity:1.0000000;"
         offset="1.0000000"
         id="stop261-5" />
    </linearGradient>
    <linearGradient
       id="linearGradient269-8">
      <stop
         style="stop-color:#a3a3a3;stop-opacity:1.0000000;"
         offset="0.0000000"
         id="stop270-5" />
      <stop
         style="stop-color:#4c4c4c;stop-opacity:1.0000000;"
         offset="1.0000000"
         id="stop271-6" />
    </linearGradient>
    <linearGradient
       id="linearGradient15662-9">
      <stop
         style="stop-color:#ffffff;stop-opacity:1.0000000;"
         offset="0.0000000"
         id="stop15664-6" />
      <stop
         style="stop-color:#f8f8f8;stop-opacity:1.0000000;"
         offset="1.0000000"
         id="stop15666-3" />
    </linearGradient>
    <linearGradient
       id="linearGradient2152">
      <stop
         style="stop-color:#9aa29a;stop-opacity:1.0000000;"
         offset="0.0000000"
         id="stop2154" />
      <stop
         style="stop-color:#b5beb5;stop-opacity:1.0000000;"
         offset="1.0000000"
         id="stop2156" />
    </linearGradient>
    <linearGradient
       id="linearGradient2145">
      <stop
         id="stop2147"
         offset="0.0000000"
         style="stop-color:#fffffd;stop-opacity:1.0000000;" />
      <stop
         id="stop2149"
         offset="1.0000000"
         style="stop-color:#cbcbc9;stop-opacity:1.0000000;" />
    </linearGradient>
    <linearGradient
       id="linearGradient42174">
      <stop
         id="stop42176"
         offset="0.0000000"
         style="stop-color:#a0a0a0;stop-opacity:1.0000000;" />
      <stop
         id="stop42178"
         offset="1.0000000"
         style="stop-color:#ffffff;stop-opacity:1.0000000;" />
    </linearGradient>
    <linearGradient
       id="linearGradient2111">
      <stop
         id="stop2113"
         offset="0.0000000"
         style="stop-color:#838383;stop-opacity:1.0000000;" />
      <stop
         id="stop2115"
         offset="1.0000000"
         style="stop-color:#000000;stop-opacity:1.0000000;" />
    </linearGradient>
    <linearGradient
       id="linearGradient4642"
       inkscape:collect="always">
      <stop
         id="stop4644"
         offset="0"
         style="stop-color:#000000;stop-opacity:1;" />
      <stop
         id="stop4646"
         offset="1"
         style="stop-color:#000000;stop-opacity:0;" />
    </linearGradient>
    <linearGradient
       id="linearGradient4650"
       inkscape:collect="always">
      <stop
         id="stop4652"
         offset="0"
         style="stop-color:#c6c6c6;stop-opacity:1;" />
      <stop
         id="stop4654"
         offset="1"
         style="stop-color:#c6c6c6;stop-opacity:0;" />
    </linearGradient>
    <linearGradient
       id="linearGradient2152-0">
      <stop
         style="stop-color:#9aa29a;stop-opacity:1.0000000;"
         offset="0.0000000"
         id="stop2154-5" />
      <stop
         style="stop-color:#b5beb5;stop-opacity:1.0000000;"
         offset="1.0000000"
         id="stop2156-9" />
    </linearGradient>
    <radialGradient
       r="29.292715"
       fy="10.045444"
       fx="11.901996"
       cy="10.045444"
       cx="11.901996"
       gradientUnits="userSpaceOnUse"
       id="radialGradient4797-4"
       xlink:href="#linearGradient2145-6"
       inkscape:collect="always" />
    <linearGradient
       id="linearGradient2145-6">
      <stop
         id="stop2147-9"
         offset="0.0000000"
         style="stop-color:#fffffd;stop-opacity:1.0000000;" />
      <stop
         id="stop2149-2"
         offset="1.0000000"
         style="stop-color:#cbcbc9;stop-opacity:1.0000000;" />
    </linearGradient>
    <linearGradient
       y2="25.884274"
       x2="22.218424"
       y1="7.7893324"
       x1="6.342216"
       gradientUnits="userSpaceOnUse"
       id="linearGradient4799-2"
       xlink:href="#linearGradient42174-4"
       inkscape:collect="always" />
    <linearGradient
       id="linearGradient42174-4">
      <stop
         id="stop42176-7"
         offset="0.0000000"
         style="stop-color:#a0a0a0;stop-opacity:1.0000000;" />
      <stop
         id="stop42178-7"
         offset="1.0000000"
         style="stop-color:#ffffff;stop-opacity:1.0000000;" />
    </linearGradient>
    <linearGradient
       y2="17.322744"
       x2="19.359053"
       y1="8.3119221"
       x1="13.037439"
       gradientUnits="userSpaceOnUse"
       id="linearGradient4801-5"
       xlink:href="#linearGradient2111-4"
       inkscape:collect="always" />
    <linearGradient
       id="linearGradient2111-4">
      <stop
         id="stop2113-8"
         offset="0.0000000"
         style="stop-color:#838383;stop-opacity:1.0000000;" />
      <stop
         id="stop2115-1"
         offset="1.0000000"
         style="stop-color:#000000;stop-opacity:1.0000000;" />
    </linearGradient>
    <linearGradient
       y2="7.423245"
       x2="19.359053"
       y1="-1.5875777"
       x1="13.037439"
       gradientUnits="userSpaceOnUse"
       id="linearGradient4803-2"
       xlink:href="#linearGradient2111-4"
       inkscape:collect="always" />
    <linearGradient
       id="linearGradient3431">
      <stop
         id="stop3433"
         offset="0.0000000"
         style="stop-color:#838383;stop-opacity:1.0000000;" />
      <stop
         id="stop3435"
         offset="1.0000000"
         style="stop-color:#000000;stop-opacity:1.0000000;" />
    </linearGradient>
    <linearGradient
       y2="12.372997"
       x2="24.308804"
       y1="3.3621745"
       x1="17.987192"
       gradientUnits="userSpaceOnUse"
       id="linearGradient4805-8"
       xlink:href="#linearGradient2111-4"
       inkscape:collect="always" />
    <linearGradient
       id="linearGradient3438">
      <stop
         id="stop3440"
         offset="0.0000000"
         style="stop-color:#838383;stop-opacity:1.0000000;" />
      <stop
         id="stop3442"
         offset="1.0000000"
         style="stop-color:#000000;stop-opacity:1.0000000;" />
    </linearGradient>
    <linearGradient
       y2="12.372997"
       x2="14.409305"
       y1="3.3621745"
       x1="8.0876923"
       gradientUnits="userSpaceOnUse"
       id="linearGradient4807-9"
       xlink:href="#linearGradient2111-4"
       inkscape:collect="always" />
    <linearGradient
       id="linearGradient3445">
      <stop
         id="stop3447"
         offset="0.0000000"
         style="stop-color:#838383;stop-opacity:1.0000000;" />
      <stop
         id="stop3449"
         offset="1.0000000"
         style="stop-color:#000000;stop-opacity:1.0000000;" />
    </linearGradient>
    <linearGradient
       y2="37.964115"
       x2="29.940228"
       y1="1.3897572"
       x1="6.5263553"
       gradientUnits="userSpaceOnUse"
       id="linearGradient4809-3"
       xlink:href="#linearGradient4650-6"
       inkscape:collect="always" />
    <linearGradient
       id="linearGradient4650-6"
       inkscape:collect="always">
      <stop
         id="stop4652-8"
         offset="0"
         style="stop-color:#c6c6c6;stop-opacity:1;" />
      <stop
         id="stop4654-0"
         offset="1"
         style="stop-color:#c6c6c6;stop-opacity:0;" />
    </linearGradient>
    <radialGradient
       inkscape:collect="always"
       xlink:href="#linearGradient2145-6"
       id="radialGradient3594"
       gradientUnits="userSpaceOnUse"
       cx="11.901996"
       cy="10.045444"
       fx="11.901996"
       fy="10.045444"
       r="29.292715" />
    <linearGradient
       inkscape:collect="always"
       xlink:href="#linearGradient42174-4"
       id="linearGradient3596"
       gradientUnits="userSpaceOnUse"
       x1="6.342216"
       y1="7.7893324"
       x2="22.218424"
       y2="25.884274" />
    <linearGradient
       inkscape:collect="always"
       xlink:href="#linearGradient2111-4"
       id="linearGradient3598"
       gradientUnits="userSpaceOnUse"
       x1="13.037439"
       y1="8.3119221"
       x2="19.359053"
       y2="17.322744" />
    <linearGradient
       inkscape:collect="always"
       xlink:href="#linearGradient2111-4"
       id="linearGradient3600"
       gradientUnits="userSpaceOnUse"
       x1="13.037439"
       y1="-1.5875777"
       x2="19.359053"
       y2="7.423245" />
    <linearGradient
       inkscape:collect="always"
       xlink:href="#linearGradient2111-4"
       id="linearGradient3602"
       gradientUnits="userSpaceOnUse"
       x1="17.987192"
       y1="3.3621745"
       x2="24.308804"
       y2="12.372997" />
    <linearGradient
       inkscape:collect="always"
       xlink:href="#linearGradient2111-4"
       id="linearGradient3604"
       gradientUnits="userSpaceOnUse"
       x1="8.0876923"
       y1="3.3621745"
       x2="14.409305"
       y2="12.372997" />
    <radialGradient
       inkscape:collect="always"
       xlink:href="#linearGradient2865"
       id="radialGradient32232"
       gradientUnits="userSpaceOnUse"
       gradientTransform="matrix(0.7566789,0,0,0.10223614,12.177896,36.865828)"
       cx="20.525417"
       cy="40.437481"
       fx="20.525417"
       fy="40.437481"
       r="19.5625" />
    <radialGradient
       inkscape:collect="always"
       xlink:href="#linearGradient259"
       id="radialGradient33256"
       gradientUnits="userSpaceOnUse"
       gradientTransform="scale(0.960493,1.041132)"
       cx="33.966679"
       cy="35.736916"
       fx="33.966679"
       fy="35.736916"
       r="86.70845" />
    <radialGradient
       inkscape:collect="always"
       xlink:href="#linearGradient269"
       id="radialGradient33258"
       gradientUnits="userSpaceOnUse"
       gradientTransform="matrix(0.968273,0,0,1.032767,3.353553,0.646447)"
       cx="8.824419"
       cy="3.7561285"
       fx="8.824419"
       fy="3.7561285"
       r="37.751713" />
    <radialGradient
       inkscape:collect="always"
       xlink:href="#linearGradient15662"
       id="radialGradient33260"
       gradientUnits="userSpaceOnUse"
       gradientTransform="matrix(0.968273,0,0,1.032767,3.353553,0.646447)"
       cx="8.1435566"
       cy="7.2678967"
       fx="8.1435566"
       fy="7.2678967"
       r="38.158695" />
    <radialGradient
       inkscape:collect="always"
       xlink:href="#aigrd2"
       id="radialGradient33262"
       gradientUnits="userSpaceOnUse"
       gradientTransform="matrix(0.229703,0,0,0.229703,4.613529,3.979808)"
       cx="20.892099"
       cy="114.5684"
       fx="20.892099"
       fy="114.5684"
       r="5.256" />
    <radialGradient
       inkscape:collect="always"
       xlink:href="#aigrd3"
       id="radialGradient33264"
       gradientUnits="userSpaceOnUse"
       gradientTransform="matrix(0.229703,0,0,0.229703,4.613529,3.979808)"
       cx="20.892099"
       cy="64.567902"
       fx="20.892099"
       fy="64.567902"
       r="5.257" />
  </defs>
  <g
     id="g33216"
     transform="matrix(4.2828605,0,0,4.2828605,27.304263,63.26536)">
    <g
       transform="matrix(0.78790809,0,0,-0.78790809,208.2761,41.433295)"
       id="g33212">
      <path
         style="fill:#aa4400;fill-opacity:1;stroke:none"
         d="m -247.66415,43.227029 c 0,0 -11.14178,4.210993 -10.25305,13.258252 0.88873,9.047259 6.55344,10.341437 12.63953,10.341437 6.0861,0 8.44617,-3.712311 17.76606,-3.712311 9.31989,0 10.78338,8.220117 10.78338,8.220117 0,0 3.18198,-2.857684 3.18198,-8.750446 0,-5.892763 -3.40504,-12.462757 -12.28598,-12.462757 -8.88094,0 -14.01546,4.861358 -17.76606,4.861358 -1.54089,0 -2.82843,-0.285463 -2.82843,-2.916815 0,-2.631351 5.21492,-4.861359 5.21492,-4.861359 z"
         id="path33208"
         inkscape:connector-curvature="0"
         sodipodi:nodetypes="czzzczzszcc" />
      <path
         sodipodi:nodetypes="cczcccccc"
         inkscape:connector-curvature="0"
         id="path33210"
         d="m -227.51161,63.114407 c 9.31989,0 10.78338,8.220117 10.78338,8.220117 0,0 3.18198,-2.857684 3.18198,-8.750446 0,-5.892763 -3.40504,-12.462757 -12.28598,-12.462757 l 3.04271,4.533997 -4.98508,0.71227 5.19186,3.569961 -5.97603,1.524903 z"
         style="fill:#c8b7b7;stroke:none" />
    </g>
    <g
       id="g32265">
      <g
         id="layer6" />
      <g
         id="layer1"
         style="display:inline">
        <path
           d="m 11.505723,5.4942766 0,37.9065924"
           id="path15672"
           style="fill:none;stroke:#000000;stroke-linecap:butt;stroke-linejoin:miter;stroke-miterlimit:4;stroke-opacity:0.01754384"
           inkscape:connector-curvature="0" />
      </g>
      <g
         id="g2679">
        <rect
           style="fill:url(#radialGradient33256);fill-rule:nonzero;stroke:url(#radialGradient33258);stroke-width:1;stroke-linecap:round;stroke-linejoin:round;stroke-miterlimit:4;stroke-opacity:1;stroke-dashoffset:0;marker:none;visibility:visible;display:block;overflow:visible"
           id="rect15391"
           transform="matrix(1.003584,0,0,1.001943,-0.12722,-0.153534)"
           y="3.6464462"
           x="6.6035528"
           ry="1.1468204"
           rx="1.1449448"
           height="40.920494"
           width="34.875" />
        <rect
           style="fill:none;stroke:url(#radialGradient33260);stroke-width:1;stroke-linecap:round;stroke-linejoin:round;stroke-miterlimit:4;stroke-opacity:1;stroke-dashoffset:0;marker:none;visibility:visible;display:block;overflow:visible"
           id="rect15660"
           transform="matrix(1.003584,0,0,1.001943,-0.12722,-0.153534)"
           y="4.5839462"
           x="7.6660538"
           ry="0.14875954"
           rx="0.14851625"
           height="38.946384"
           width="32.775887" />
        <g
           style="display:inline"
           id="g2270"
           transform="translate(0.646447,-0.03798933)">
          <g
             style="fill:#ffffff;stroke:#000000;stroke-miterlimit:4"
             id="g1440"
             transform="matrix(0.229703,0,0,0.229703,4.967081,4.244972)">
            <radialGradient
               gradientUnits="userSpaceOnUse"
               id="radialGradient1442"
               fy="114.5684"
               fx="20.892099"
               r="5.256"
               cy="114.5684"
               cx="20.892099">
              <stop
                 offset="0"
                 style="stop-color:#f0f0f0;stop-opacity:1"
                 id="stop1444" />
              <stop
                 offset="1"
                 style="stop-color:#474747;stop-opacity:1"
                 id="stop1446" />
            </radialGradient>
            <path
               inkscape:connector-curvature="0"
               style="stroke:none"
               id="path1448"
               d="m 23.428,113.07 c 0,1.973 -1.6,3.572 -3.573,3.572 -1.974,0 -3.573,-1.6 -3.573,-3.572 0,-1.974 1.6,-3.573 3.573,-3.573 1.973,0 3.573,1.6 3.573,3.573 z" />
            <radialGradient
               gradientUnits="userSpaceOnUse"
               id="radialGradient1450"
               fy="64.567902"
               fx="20.892099"
               r="5.257"
               cy="64.567902"
               cx="20.892099">
              <stop
                 offset="0"
                 style="stop-color:#f0f0f0;stop-opacity:1"
                 id="stop1452" />
              <stop
                 offset="1"
                 style="stop-color:#474747;stop-opacity:1"
                 id="stop1454" />
            </radialGradient>
            <path
               inkscape:connector-curvature="0"
               style="stroke:none"
               id="path1456"
               d="m 23.428,63.07 c 0,1.973 -1.6,3.573 -3.573,3.573 -1.974,0 -3.573,-1.6 -3.573,-3.573 0,-1.974 1.6,-3.573 3.573,-3.573 1.973,0 3.573,1.6 3.573,3.573 z" />
          </g>
          <path
             inkscape:connector-curvature="0"
             style="fill:url(#radialGradient33262);fill-rule:nonzero;stroke:none"
             id="path15570"
             d="m 9.9950109,29.952326 c 0,0.453204 -0.3675248,0.820499 -0.8207288,0.820499 -0.4534338,0 -0.8207289,-0.367524 -0.8207289,-0.820499 0,-0.453434 0.3675248,-0.820729 0.8207289,-0.820729 0.453204,0 0.8207288,0.367525 0.8207288,0.820729 z" />
          <path
             inkscape:connector-curvature="0"
             style="fill:url(#radialGradient33264)"
             id="path15577"
             d="m 9.9950109,18.467176 c 0,0.453204 -0.3675248,0.820729 -0.8207288,0.820729 -0.4534338,0 -0.8207289,-0.367525 -0.8207289,-0.820729 0,-0.453434 0.3675248,-0.820729 0.8207289,-0.820729 0.453204,0 0.8207288,0.367525 0.8207288,0.820729 z" />
        </g>
        <path
           inkscape:connector-curvature="0"
           style="fill:none;stroke:#ffffff;stroke-width:1;stroke-linecap:butt;stroke-linejoin:miter;stroke-miterlimit:4;stroke-opacity:0.2;display:inline"
           id="path15674"
           d="m 12.5,5.0205154 0,38.0177126" />
        <g
           id="g2253"
           transform="matrix(0.909091,0,0,1,2.363628,0)">
          <rect
             style="fill:#e9c6af;fill-opacity:0.54901961"
             id="rect15686"
             y="9"
             x="17.750002"
             ry="0.065390877"
             rx="0.022734733"
             height="1"
             width="3.2999997" />
          <rect
             style="fill:#c87137;fill-opacity:1"
             id="rect15688"
             y="11"
             x="16.100002"
             ry="0.065390877"
             rx="0.045469467"
             height="1"
             width="6.5999994" />
          <rect
             style="fill:#aa4400;fill-opacity:1"
             id="rect15690"
             y="13"
             x="15.000002"
             ry="0.065390877"
             rx="0.060625952"
             height="1"
             width="8.7999992" />
          <rect
             style="fill:#aa4400;fill-opacity:1"
             id="rect15698"
             y="21"
             x="15.687506"
             ry="0.065390877"
             rx="0.053047709"
             height="1"
             width="7.6999993" />
          <rect
             style="fill:#552200;fill-opacity:1"
             id="rect15700"
             y="23"
             x="15.687506"
             ry="0.065390877"
             rx="0.053047709"
             height="1"
             width="7.6999993" />
          <rect
             style="fill:#000000;fill-opacity:1"
             id="rect15742"
             y="35"
             x="23.249994"
             ry="0.065390877"
             rx="0.03789122"
             height="1"
             width="5.4999995" />
          <rect
             style="fill:#000000;fill-opacity:1"
             id="rect15744"
             y="37"
             x="23.249994"
             ry="0.065390877"
             rx="0.03789122"
             height="1"
             width="5.4999995" />
          <rect
             width="7.6999993"
             height="1"
             rx="0.053047709"
             ry="0.065390877"
             x="28.612503"
             y="21"
             id="rect32415"
             style="fill:#aa4400;fill-opacity:1" />
          <rect
             width="7.6999993"
             height="1"
             rx="0.053047709"
             ry="0.065390877"
             x="28.612503"
             y="23"
             id="rect32417"
             style="fill:#552200;fill-opacity:1" />
          <rect
             width="2.1999998"
             height="1"
             rx="0.015156488"
             ry="0.065390877"
             x="18.437506"
             y="23"
             id="rect33198"
             style="fill:#d40000;fill-opacity:1" />
          <rect
             style="fill:#d40000;fill-opacity:1"
             id="rect33200"
             y="23"
             x="31.362503"
             ry="0.065390877"
             rx="0.015156488"
             height="1"
             width="2.1999998" />
          <rect
             width="8.7999992"
             height="1"
             rx="0.060625952"
             ry="0.065390877"
             x="28.200006"
             y="13"
             id="rect33202"
             style="fill:#aa4400;fill-opacity:1" />
          <rect
             width="6.5999994"
             height="1"
             rx="0.045469467"
             ry="0.065390877"
             x="29.300007"
             y="11"
             id="rect33204"
             style="fill:#c87137;fill-opacity:1" />
          <rect
             width="3.2999997"
             height="1"
             rx="0.022734733"
             ry="0.065390877"
             x="30.950006"
             y="9"
             id="rect33206"
             style="fill:#e9c6af;fill-opacity:0.54901961" />
        </g>
      </g>
    </g>
  </g>
</svg>
